<?xml version="1.0" ?>
<robot name="sp00tn1k" xmlns:xacro="http://ros.org/wiki/xacro">
  <!--xacro:include filename="$(find sp00tn1k_description)/urdf/sp00tn1k4.gazebo.xacro"/-->
  <link name="base_footprint"/>

  <joint name="base_joint" type="fixed">
    <parent link="base_footprint"/>
    <child link="base_link" />
    <origin xyz="0 0 0.12" rpy="0 0 0"/>
  </joint>

  <link name="base_link">
    <visual>
      <origin xyz="0 0 0.05" rpy="0 0 1.57" />
      <geometry>
        <mesh filename="package://sp00tn1k_description/meshes/sp00tn1k4.dae" />
      </geometry>
    </visual>
  </link>

  <joint name="wheel_left_joint" type="continuous">
    <parent link="base_link"/>
    <child link="wheel_left_link" />
    <origin xyz="0.18 0.21 -0.01" rpy="0 0 0"/>
    <axis xyz="0 1 0" />
  </joint>

  <link name="wheel_left_link">
    <collision>
      <origin xyz="0 0 0" rpy="1.57 0 0"/>
      <geometry>
        <cylinder length="0.04" radius="0.109"/>
      </geometry>
    </collision>
    <inertial>
      <mass value="1.0" />
      <origin xyz="0 0 0" />
      <inertia ixx="0.001" ixy="0.0" ixz="0.0"
               iyy="0.001" iyz="0.0"
               izz="0.001" />
    </inertial>
  </link>

  <joint name="wheel_right_joint" type="continuous">
    <parent link="base_link"/>
    <child link="wheel_right_link" />
    <origin xyz="0.18 -0.21 -0.01" rpy="0 0 0"/>
    <axis xyz="0 1 0" />
  </joint>

  <link name="wheel_right_link">
    <collision>
      <origin xyz="0 0 0" rpy="1.57 0 0"/>
      <geometry>
        <cylinder length="0.04" radius="0.109"/>
      </geometry>
    </collision>
    <inertial>
      <mass value="1.0" />
      <origin xyz="0 0 0" />
      <inertia ixx="0.001" ixy="0.0" ixz="0.0"
               iyy="0.001" iyz="0.0"
               izz="0.001" />
    </inertial>
  </link>

  <joint name="caster_joint" type="fixed">
    <parent link="base_link"/>
    <child link="caster_wheel_link" />
    <!--origin xyz="-0.26 0 0.04" rpy="0 0 0"/-->
    <origin xyz="-0.26 0 -0.06" rpy="0 0 0"/>
    <axis xyz="0 0 1" />
  </joint>

  <!--link name="caster_link">
  </link>

  <joint name="caster_wheel_joint" type="continuous">
    <parent link="caster_link"/>
    <child link="caster_wheel_link" />
    <origin xyz="0 0 -0.10" rpy="0 0 0"/>
    <axis xyz="0 1 0" />
  </joint-->

  <link name="caster_wheel_link">
    <collision>
      <origin xyz="0 0 0" rpy="1.57 0 0"/>
      <geometry>
        <cylinder length="0.073" radius="0.064"/>
      </geometry>
    </collision>
    <inertial>
      <mass value="1.0" />
      <origin xyz="0 0 0" />
      <inertia ixx="0.001" ixy="0.0" ixz="0.0"
               iyy="0.001" iyz="0.0"
               izz="0.001" />
    </inertial>
  </link>

  <joint name="laser_joint" type="fixed">
    <parent link="base_link"/>
    <child link="laser_link"/>
    <!--origin xyz="0.2 0 0.125" rpy="0 0 0"/-->
    <origin xyz="0.08 0 0.26" rpy="0 0 3.141"/> <!-- Rotated due to rplidar_ros package publishing wrong -->
  </joint>

  <link name="laser_link">

  </link>

  <joint name="screen_joint" type="fixed" >
    <parent link="base_link" />
    <child link="screen" />
    <origin xyz="0 0 1.032" rpy="0 0 0"/>
  </joint>
 
  <link name="screen">
  
  </link>

  <joint name="camera_joint" type="fixed" >
    <parent link="base_link"/>
    <child link="camera_link"/>
    <!--origin xyz="0 0 1.522" rpy="0 0.17 0"/-->
    <origin xyz="0 0 1.522" rpy="0 0 0"/>
  </joint>

  <link name="camera_link">

  </link>

  <joint name="sc_joint" type="fixed" >
    <parent link="base_link"/>
    <child link="sc_link"/>
    <origin xyz="0.05 -0.10 0.7" rpy="0 0 0"/>
  </joint>

  <link name="sc_link" />

  <joint name="camera_optical_joint" type="fixed">
    <origin xyz="0 0 0" rpy="-1.57 0 -1.57"/>
    <parent link="camera_link"/>
    <child link="camera_optical_frame"/>
  </joint>

  <link name="camera_optical_frame"/>

  <joint name="camera_360_front_joint" type="fixed">
    <origin xyz="0 0 0" rpy="-1.57 0 -1.57"/>
    <parent link="camera_link"/>
    <child link="camera_360_front_optical_frame"/>
  </joint>

  <link name="camera_360_front_optical_frame"/>
   
  <joint name="rear_camera_joint" type="fixed">
    <origin xyz="0 0 0" rpy="0 0 3.1415"/>
    <parent link="camera_link"/>
    <child link="rear_camera_link"/>
  </joint>

  <link name="rear_camera_link"/>

  <joint name="camera_360_back_joint" type="fixed">
    <origin xyz="0 0 0" rpy="-1.57 0 -1.57"/>
    <parent link="rear_camera_link"/>
    <child link="camera_360_back_optical_frame"/>
  </joint>

  <link name="camera_360_back_optical_frame"/>
</robot>
