<?xml version="1.0"?>
<robot name="sp00tn1k" xmlns:xacro="http://ros.org/wiki/xacro">

  <gazebo reference="base_link">
    <material>Gazebo/DarkGrey</material>
  </gazebo>

  <gazebo reference="wheel_left_link">
    <mu1>0.8</mu1>
    <mu2>0.8</mu2>
    <kp>500000.0</kp>
    <kd>10.0</kd>
    <minDepth>0.001</minDepth>
    <maxVel>1.0</maxVel>
    <fdir1>1 0 0</fdir1>
    <material>Gazebo/FlatBlack</material>
  </gazebo>
  
  <gazebo reference="wheel_right_link">
    <mu1>0.8</mu1>
    <mu2>0.8</mu2>
    <kp>500000.0</kp>
    <kd>10.0</kd>
    <minDepth>0.001</minDepth>
    <maxVel>1.0</maxVel>
    <fdir1>1 0 0</fdir1>
    <material>Gazebo/FlatBlack</material>
  </gazebo>
  
  <gazebo reference="caster_wheel_link">
    <mu1>0.10</mu1>
    <mu2>0.10</mu2>
    <kp>1000000.0</kp>
    <kd>100.0</kd>
    <minDepth>0.001</minDepth>
    <maxVel>1.0</maxVel>
    <fdir1>1 0 0</fdir1>
    <material>Gazebo/FlatBlack</material>
  </gazebo>

  <gazebo reference="screen">
    <material>Gazebo/DarkGrey</material>
  </gazebo>

  <gazebo>
    <plugin name="sp00tn1k_controller" filename="libgazebo_ros_diff_drive.so">
      <commandTopic>cmd_vel</commandTopic>
      <odometryTopic>odom</odometryTopic>
      <odometryFrame>odom</odometryFrame>
      <odometrySource>world</odometrySource>
      <publishOdomTF>true</publishOdomTF>
      <robotBaseFrame>base_footprint</robotBaseFrame>
      <publishWheelTF>true</publishWheelTF>
      <publishTf>true</publishTf>
      <publishWheelJointState>true</publishWheelJointState>
      <legacyMode>false</legacyMode>
      <updateRate>30</updateRate>
      <leftJoint>wheel_left_joint</leftJoint>
      <rightJoint>wheel_right_joint</rightJoint>
      <wheelSeparation>0.360</wheelSeparation>
      <wheelDiameter>0.218</wheelDiameter>
      <wheelAcceleration>1</wheelAcceleration>
      <wheelTorque>10</wheelTorque>
      <rosDebugLevel>na</rosDebugLevel>
    </plugin>
  </gazebo>

  <gazebo reference="laser_link">
    <material>Gazebo/FlatBlack</material>
    <sensor type="ray" name="lds_lfcd_sensor">
      <pose>0 0 0 0 0 0</pose>
      <visualize>true</visualize>
      <update_rate>10</update_rate>
      <ray>
        <scan>
          <horizontal>
            <samples>360</samples>
            <resolution>1</resolution>
            <min_angle>0.0</min_angle>
            <max_angle>6.28319</max_angle>
          </horizontal>
        </scan>
        <range>
          <min>0.120</min>
          <max>5</max>
          <resolution>0.015</resolution>
        </range>
        <noise>
          <type>gaussian</type>
          <mean>0.0</mean>
          <stddev>0.01</stddev>
        </noise>
      </ray>
      <plugin name="gazebo_ros_lds_lfcd_controller" filename="libgazebo_ros_laser.so">
        <topicName>scan</topicName>
        <frameName>laser_link</frameName>
      </plugin>
    </sensor>
  </gazebo>

  <gazebo reference="camera_link">
    <sensor type="wideanglecamera" name="camera">
      <update_rate>30.0</update_rate>
      <camera name="camera">
        <!--horizontal_fov>1.3962634</horizontal_fov-->
        <horizontal_fov>6.283</horizontal_fov>
        <image>
          <width>1920</width>
          <height>1080</height>
          <format>R8G8B8</format>
        </image>
        <clip>
          <near>0.02</near>
          <far>300</far>
        </clip> 
        <lens>
            <!-- type element is mandatory -->
            <type>custom</type>
            <!-- manually defined mapping function r = c1*f*fun(theta/c2 + c3) -->
            <!-- More information here: https://en.wikipedia.org/wiki/Fisheye_lens#Mapping_function -->
            <custom_function>
              <c1>1.05</c1>
              <!-- linear scaling -->
              <c2>4</c2>
              <!-- angle scaling -->
              <f>1.0</f>
              <!-- one more scaling parameter -->
              <fun>tan</fun>
              <!-- one of sin,tan,id -->
            </custom_function>
            <!-- if it is set to `true` your horizontal FOV will ramain as defined -->
            <!-- othervise it depends on lens type and custom function, if there is one -->
            <scale_to_hfov>true</scale_to_hfov>
            <!-- clip everything that is outside of this angle -->
            <!--cutoff_angle>3.1415</cutoff_angle-->
            <cutoff_angle>6.283</cutoff_angle>
            <!-- resolution of the cubemap texture, the highter it is - the sharper is your image -->
            <env_texture_size>512</env_texture_size>
        </lens>
      </camera>
      <plugin name="camera_controller" filename="libgazebo_ros_camera.so">
        <alwaysOn>true</alwaysOn>
        <updateRate>0.0</updateRate>
        <cameraName>camera</cameraName>
        <imageTopicName>image_raw</imageTopicName>
        <cameraInfoTopicName>camera_info</cameraInfoTopicName>
        <frameName>camera_optical_frame</frameName>
        <hackBaseline>0.07</hackBaseline>
      </plugin>
    </sensor>


    <sensor type="wideanglecamera" name="camera_360_front">
      <update_rate>30.0</update_rate>
      <camera name="camera_360_front">
        <!--horizontal_fov>1.3962634</horizontal_fov-->
        <horizontal_fov>3.1415</horizontal_fov>
        <image>
          <width>1280</width>
          <height>720</height>
          <format>R8G8B8</format>
        </image>
        <clip>
          <near>0.02</near>
          <far>300</far>
        </clip> 
        <lens>
            <!-- type element is mandatory -->
            <type>custom</type>
            <!-- manually defined mapping function r = c1*f*fun(theta/c2 + c3) -->
            <!-- More information here: https://en.wikipedia.org/wiki/Fisheye_lens#Mapping_function -->
            <custom_function>
              <c1>1.05</c1>
              <!-- linear scaling -->
              <c2>4</c2>
              <!-- angle scaling -->
              <f>1.0</f>
              <!-- one more scaling parameter -->
              <fun>tan</fun>
              <!-- one of sin,tan,id -->
            </custom_function>
            <!-- if it is set to `true` your horizontal FOV will ramain as defined -->
            <!-- othervise it depends on lens type and custom function, if there is one -->
            <scale_to_hfov>true</scale_to_hfov>
            <!-- clip everything that is outside of this angle -->
            <!--cutoff_angle>3.1415</cutoff_angle-->
            <cutoff_angle>3.1415</cutoff_angle>
            <!-- resolution of the cubemap texture, the highter it is - the sharper is your image -->
            <env_texture_size>512</env_texture_size>
        </lens>
      </camera>
      <plugin name="camera_controller" filename="libgazebo_ros_camera.so">
        <alwaysOn>true</alwaysOn>
        <updateRate>0.0</updateRate>
        <cameraName>camera_360_front</cameraName>
        <imageTopicName>image_raw</imageTopicName>
        <cameraInfoTopicName>camera_info</cameraInfoTopicName>
        <frameName>camera_360_front_optical_frame</frameName>
        <hackBaseline>0.07</hackBaseline>
      </plugin>
    </sensor>

    <sensor type="wideanglecamera" name="camera_360_back">
      <pose>0 0 0 0 0 3.1415</pose>
      <update_rate>30.0</update_rate>
      <camera name="camera_360_back">
        <!--horizontal_fov>1.3962634</horizontal_fov-->
        <horizontal_fov>3.1415</horizontal_fov>
        <image>
          <width>1280</width>
          <height>720</height>
          <format>R8G8B8</format>
        </image>
        <clip>
          <near>0.02</near>
          <far>300</far>
        </clip> 
        <lens>
            <!-- type element is mandatory -->
            <type>custom</type>
            <!-- manually defined mapping function r = c1*f*fun(theta/c2 + c3) -->
            <!-- More information here: https://en.wikipedia.org/wiki/Fisheye_lens#Mapping_function -->
            <custom_function>
              <c1>1.05</c1>
              <!-- linear scaling -->
              <c2>4</c2>
              <!-- angle scaling -->
              <f>1.0</f>
              <!-- one more scaling parameter -->
              <fun>tan</fun>
              <!-- one of sin,tan,id -->
            </custom_function>
            <!-- if it is set to `true` your horizontal FOV will ramain as defined -->
            <!-- othervise it depends on lens type and custom function, if there is one -->
            <scale_to_hfov>true</scale_to_hfov>
            <!-- clip everything that is outside of this angle -->
            <!--cutoff_angle>3.1415</cutoff_angle-->
            <cutoff_angle>3.1415</cutoff_angle>
            <!-- resolution of the cubemap texture, the highter it is - the sharper is your image -->
            <env_texture_size>512</env_texture_size>
        </lens>
      </camera>
      <plugin name="camera_controller" filename="libgazebo_ros_camera.so">
        <alwaysOn>true</alwaysOn>
        <updateRate>0.0</updateRate>
        <cameraName>camera_360_back</cameraName>
        <imageTopicName>image_raw</imageTopicName>
        <cameraInfoTopicName>camera_info</cameraInfoTopicName>
        <frameName>camera_360_back_optical_frame</frameName>
        <hackBaseline>0.07</hackBaseline>
      </plugin>
    </sensor>
  </gazebo>







  <!--gazebo reference="camera_link">
    <sensor type="camera" name="camera">
      <update_rate>30.0</update_rate>
      <camera name="camera">
        <horizontal_fov>1.3962634</horizontal_fov>
        <image>
          <width>1920</width>
          <height>1080</height>
          <format>R8G8B8</format>
        </image>
        <clip>
          <near>0.02</near>
          <far>300</far>
        </clip>
        <noise>
          <type>gaussian</type>
          <mean>0.0</mean>
          <stddev>0.007</stddev>
        </noise>
      </camera>
      <plugin name="camera_controller" filename="libgazebo_ros_camera.so">
        <alwaysOn>true</alwaysOn>
        <updateRate>0.0</updateRate>
        <cameraName>camera</cameraName>
        <imageTopicName>image_raw</imageTopicName>
        <cameraInfoTopicName>camera_info</cameraInfoTopicName>
        <frameName>camera_optical_frame</frameName>
        <hackBaseline>0.07</hackBaseline>
        <distortionK1>0.0</distortionK1>
        <distortionK2>0.0</distortionK2>
        <distortionK3>0.0</distortionK3>
        <distortionT1>0.0</distortionT1>
        <distortionT2>0.0</distortionT2>
      </plugin>
    </sensor>
  </gazebo-->
</robot>
